{
    "/js/app.js": "/js/app.js",
    "/css/app.css": "/css/app.css",
    "/css/user.css": "/css/user.css",
    "/css/dashboard.css": "/css/dashboard.css",
    "/css/forms.css": "/css/forms.css",
    "/css/form-d.css": "/css/form-d.css",
    "/css/form-f.css": "/css/form-f.css",
    "/css/form-ii.css": "/css/form-ii.css",
    "/css/form-iii.css": "/css/form-iii.css",
    "/css/view.css": "/css/view.css",
    "/js/dashboard.js": "/js/dashboard.js",
    "/js/form-d.js": "/js/form-d.js",
    "/js/form-f.js": "/js/form-f.js",
    "/js/form-ii.js": "/js/form-ii.js",
    "/js/form-iii.js": "/js/form-iii.js",
    "/js/forms.js": "/js/forms.js",
    "/js/user.js": "/js/user.js",
    "/js/view.js": "/js/view.js"
}
